% \documentclass[tikz]{standalone}
% % \documentclass{standalone}
% % \usepackage{tikz}

% \usepackage{graphicx}
% % \graphicspath{ {./images/}{../images/} }
% \graphicspath{{images/}{../images/}}

% \usetikzlibrary{graphs, graphdrawing, arrows.meta, calc, shapes.multipart, topaths, matrix, positioning, decorations, decorations.text, decorations.pathreplacing}
% \usegdlibrary{trees, layered}
% \usepackage{siunitx}


% \begin{document}

\begin{tikzpicture}[every edge/.style={draw=none},>=Stealth]
  \graph [layered layout
  , orient = -10
  , componentwise
  , nodes = {draw, fill=gray}
  ]{ 
 fix/{\includegraphics[width=2.5cm]{fixation}}[label={[anchor=south east, shift={(0,0-|fix.east)}]above:ITI}] ->
  target1/{\includegraphics[width=2.5cm]{target}}[label={[anchor=south east, shift={(0,0-|target1.east)}]above:Inducer}] ->
  mask1/{\includegraphics[width=2.5cm]{mask}}[label={[anchor=south east, shift={(0,0-|mask1.east)}]above:Mask}] ->
  iti/{\includegraphics[width=2.5cm]{fixation}}[label={[anchor=south east, shift={(0,0-|iti.east)}]above:ITI}] -> 
  blank/{}[draw=none,fill=none] ->
  target2/{\includegraphics[width=2.5cm]{target}}[label={[anchor=south east, shift={(0,0-|target2.east)}]above:Target}] ->
  mask2/{\includegraphics[width=2.5cm]{mask}}[label={[anchor=south east, shift={(0,0-|mask2.east)}]above:Mask}] -> 
  blank2/{}[draw=none, fill=none] -> 
  dots/{\rotatebox{-10}{\Huge\ldots}}[draw=none, fill=none]
  
  };
  
  \draw [->] ([yshift=-2mm]fix.south west) -- ([yshift=-2mm]mask2.south west);
  
  \draw [decorate, decoration={brace}] ([yshift=0.5cm]fix.north east) -- ([yshift=0.5cm]mask1.north east) node[black, midway, yshift = 0.52cm] {Trial $n-1$};
  
  \draw [decorate, decoration={brace}] ([yshift=0.5cm]target2.north east) -- ([yshift=0.5cm]mask2.north east) node[black, midway, yshift = 0.5cm] {Trial $n$};
  
  \node at ([yshift=0.4cm, xshift=0.4cm]target1.south west) {\includegraphics[width=1cm]{mouse}};
  \node at ([yshift=0.4cm, xshift=0.4cm]mask1.south west) {\includegraphics[width=1cm]{mouse}};
  \node at ([yshift=0.4cm, xshift=0.4cm]target2.south west) {\includegraphics[width=1cm]{mouse}};
  \node at ([yshift=0.4cm, xshift=0.4cm]mask2.south west) {\includegraphics[width=1cm]{mouse}};
   

\end{tikzpicture}

% \end{document}
